<svg width="38" height="34" viewBox="0 0 38 34" fill="none" xmlns="http://www.w3.org/2000/svg">
<path fill-rule="evenodd" clip-rule="evenodd" d="M27.8548 4.16667H33.6665C35.6832 4.16667 37.3332 5.81667 37.3332 7.83333V29.8333C37.3332 31.85 35.6832 33.5 33.6665 33.5H4.33317C2.3165 33.5 0.666504 31.85 0.666504 29.8333V7.83333C0.666504 5.81667 2.3165 4.16667 4.33317 4.16667H10.1448L13.4998 0.5H24.4998L27.8548 4.16667ZM4.33317 29.8333H33.6665V7.83333H26.2415L22.8865 4.16667H15.1132L11.7582 7.83333H4.33317V29.8333ZM18.9998 9.66667C13.9398 9.66667 9.83317 13.7733 9.83317 18.8333C9.83317 23.8933 13.9398 28 18.9998 28C24.0598 28 28.1665 23.8933 28.1665 18.8333C28.1665 13.7733 24.0598 9.66667 18.9998 9.66667ZM13.4998 18.8333C13.4998 21.8583 15.9748 24.3333 18.9998 24.3333C22.0248 24.3333 24.4998 21.8583 24.4998 18.8333C24.4998 15.8083 22.0248 13.3333 18.9998 13.3333C15.9748 13.3333 13.4998 15.8083 13.4998 18.8333Z" fill="white"/>
</svg>
