<svg width="53" height="53" viewBox="0 0 53 53" fill="none" xmlns="http://www.w3.org/2000/svg">
<path fill-rule="evenodd" clip-rule="evenodd" d="M26.5 4C14.0575 4 4 14.0575 4 26.5C4 38.9425 14.0575 49 26.5 49C38.9425 49 49 38.9425 49 26.5C49 14.0575 38.9425 4 26.5 4ZM26.5 44.5C16.5775 44.5 8.50001 36.4225 8.50001 26.5C8.50001 16.5775 16.5775 8.5 26.5 8.5C36.4225 8.5 44.5 16.5775 44.5 26.5C44.5 36.4225 36.4225 44.5 26.5 44.5ZM26.5 23.3275L34.5775 15.25L37.75 18.4225L29.6725 26.5L37.75 34.5775L34.5775 37.75L26.5 29.6725L18.4225 37.75L15.25 34.5775L23.3275 26.5L15.25 18.4225L18.4225 15.25L26.5 23.3275Z" fill="#FDBA30"/>
</svg>
